state={
	id=1220
	name="STATE_1220"

	history={
		victory_points = {
			12206 1
		}
		buildings = {
			infrastructure = 1
			12206 = {
				naval_base = 1

			}

		}

	}

	provinces={
		12206 
	}
	manpower=68913
	buildings_max_level_factor=1.000
	state_category=enclave
}
