
state={
	id=1290
	name="STATE_1290"

	history={
		victory_points = {
			12315 1 
		}
		buildings = {
			infrastructure = 0

		}

	}

	provinces={
		4468 4524 7487 7512 7585 10436 12315 12386 
	}
	manpower=963600
	buildings_max_level_factor=1.000
	state_category=pastoral
}
