state={
	id=1292
	name="STATE_1292"

	history={
		victory_points = {
			10153 3
		}
		victory_points = {
			12358 3
		}
		victory_points = {
			7311 2
		}
		buildings = {
			infrastructure = 1
			10153 = {
				naval_base = 3

			}

		}

	}

	provinces={
		1098 1289 1351 1484 1505 1518 4262 4307 4493 4537 7311 10153 10169 10197 12358 
	}
	manpower=2512900
	buildings_max_level_factor=1.000
	state_category=rural
}
