
state={
	id=1337
	name="STATE_1337"

	impassable = yes
	history={
		owner = WAS
		add_core_of = WAS
		victory_points = {
			14321 2 
		}
		buildings = {
			infrastructure = 1

		}

	}

	provinces={
		1910 14321 14391 
	}
	manpower=149913
	buildings_max_level_factor=1.000
	state_category=rural
	local_supplies=0.000
}
