
state={
	id=1454
	name="STATE_1454"

	history={
		victory_points = {
			10302 2 
		}
		buildings = {
			infrastructure = 1

		}

	}

	provinces={
		1368 7423 10302 
	}
	manpower=1936423
	buildings_max_level_factor=1.000
	state_category=rural
}
