
state={
	id=1455
	name="STATE_1455"

	history={
		victory_points = {
			1261 3 
		}
		buildings = {
			infrastructure = 1

		}

	}

	provinces={
		1261 10186 12112 
	}
	manpower=1354995
	buildings_max_level_factor=1.000
	state_category=rural
}
