
state={
	id=1456
	name="STATE_1456"

	history={
		victory_points = {
			10272 2 
		}
		buildings = {
			infrastructure = 1

		}

	}

	provinces={
		4288 10272 14677 
	}
	manpower=844059
	buildings_max_level_factor=1.000
	state_category=pastoral
}
