state={
	id=1535
	name="STATE_1535"

	impassable = yes
	history={
		owner = WAS
		add_core_of = WAS
		victory_points = {
			7909 1
		}
		buildings = {
			infrastructure = 1

		}

	}

	provinces={
		4175 7400 7647 7909 7974 
	}
	manpower=366861
	buildings_max_level_factor=1.000
	state_category=pastoral
}
