
state={
	id=288
	name="STATE_288"
	resources={
		rubber=3.000
	}

	history={
		victory_points = {
			1330 10
		}
		buildings = {
			infrastructure = 2
			industrial_complex = 1
			air_base = 1
			1330 = {
				naval_base = 4

			}

		}
	}

	provinces={
		1330 10267 14983 
	}
	manpower=10000000
	buildings_max_level_factor=1.000
	state_category=town
}
