
state={
	id=335
	name="STATE_335"
	resources={
		rubber=140.000
		oil=10.000
	}

	history={
		victory_points = {
			7381 10
		}
		victory_points = {
			7421 5
		}
		victory_points = {
			10279 2
		}
		buildings = {
			infrastructure = 2
			industrial_complex = 1
			dockyard = 1
			air_base = 3
			7381 = {
				naval_base = 6

			}

		}
	}

	provinces={
		1386 1398 1425 4406 4621 7381 7421 10279 10307 12249 
	}
	manpower=41718200
	buildings_max_level_factor=1.000
	state_category=city
}
