
state={
	id=519
	name="STATE_519"

	history={

		victory_points = {
			12910 5 
		}
		victory_points = {
			1773 1 
		}
		buildings = {
			infrastructure = 1
			industrial_complex = 1
			12910 = {
				naval_base = 2

			}
		}
	}

	provinces={
		1773 2186 2219 5183 5197 5211 5225 7567 8220 10925 12910 12918 12924 
	}
	manpower=200800
	buildings_max_level_factor=1.000
	state_category=rural
}
