
state={
	id=532
	name="STATE_532"

	history={
		victory_points = {
			10125 20
		}
		victory_points = {
			7087 5
		}
		victory_points = {
			12097 5
		}
		buildings = {
			infrastructure = 3
			arms_factory = 2
			dockyard = 1
			industrial_complex = 2

		}
	}

	provinces={
		4069 4172 7087 7157 7187 10100 10125 12072 12097 
	}
	manpower=6174000
	buildings_max_level_factor=1.000
	state_category=large_city
}
