
state={
	id=555
	name="STATE_555"

	history={
		victory_points = {
			1399 1
		}
		buildings = {
			infrastructure = 1
			1399 = {
				naval_base = 3

			}

		}
	}

	provinces={
		1399 1515 
	}
	manpower=15000
	buildings_max_level_factor=1.000
	state_category=tiny_island
}
