
state={
	id=561
	name="STATE_561"

	history={
		victory_points = {
			7763 2 
		}
		buildings = {
			infrastructure = 1
			arms_factory = 1

		}

	}

	provinces={
		1724 1739 1842 4779 4829 7763 12654 
	}
	manpower=454281
	buildings_max_level_factor=1.000
	state_category=rural
	local_supplies=0.000
}
