state={
	id=621
	name="STATE_621"

	impassable = yes
	history={
		owner = WAS
		add_core_of = WAS
		victory_points = {
			10629 2
		}			
		buildings = {
			infrastructure = 0
		}
	}

	provinces={
		2087 10629 12609 12880 
	}
	manpower=580000
	buildings_max_level_factor=1.000
	state_category=pastoral
}
