
state={
	id=626
	name="STATE_626"

	history={
		victory_points = {
			4429 2 
		}
		buildings = {
			infrastructure = 1
			4429 = {
				naval_base = 1

			}

		}
	}

	provinces={
		4429 7419 10145 
	}
	manpower=83041
	buildings_max_level_factor=1.000
	state_category=rural
}
