
state={
	id=756
	name="STATE_756"

	impassable = yes
	history={
		owner = WAS
		add_core_of = WAS
		victory_points = {
			12156 2
		}
		buildings = {
			infrastructure = 0

		}

	}

	provinces={
		5007 10733 12156 
	}
	manpower=400000
	buildings_max_level_factor=1.000
	state_category=rural
}
