
state={
	id=817
	name="STATE_817"

	history={
		victory_points = {
		    1003 3
		}
		buildings = {
			infrastructure = 2

		}
	}

	provinces={
		1003 11915 
	}
	manpower=42000
	buildings_max_level_factor=1.000
	state_category=pastoral
}
