
state={
	id=904
	name="STATE_904"

	impassable = yes
	history={
		owner = WAS
		add_core_of = WAS
		victory_points = {
			4939 1 
		}
		buildings = {
			infrastructure = 1

		}
	}

	provinces={
		1458 4939 7314 
	}
	manpower=1000000
	buildings_max_level_factor=1.000
	state_category=city
}
